[
  "PIONNIER-CARAVELLE",
  "COMPAGNON",
  "PARENT ANIMATEUR FARFADET",
  "CHEF/CHEFTAINE LOUVETEAU-JEANNETTE-MOUSSAILLON",
  "CHEF/CHEFTAINE PIONNIER-CARAVELLE-FLOTILLE",
  "CHEF/CHEFTAINE SCOUT-GUIDE-MOUSSE",
  "ACCOMPAGNATEUR/ACCOMPAGNATRICE COMPAGNON",
  "ADMINISTRATEUR",
  "ANIMATEUR CLEOPHAS",
  "AUMONIER DE GROUPE",
  "AUMONIER GENERAL",
  "AUMONIER GENERAL ADJOINT",
  "AUMONIER NATIONAL",
  "AUMONIER TERRITORIAL",
  "AUMONIER TERRITORIAL ADJOINT",
  "CHARGE DE MISSION DU GROUPE",
  "CHARGE MISSION",
  "CHARGE MISSION ADMINISTRATIF",
  "CHARGE MISSION PAYS",
  "CHARGE MISSION TERRITORIAL",
  "COEQUIPIER VENT DU LARGE",
  "COORDONNATEUR DU RESEAU IMPEESA LOCAL",
  "DELEGUE GENERAL",
  "DELEGUE GENERAL ADJOINT",
  "DELEGUE NATIONAL",
  "DELEGUE TERRITORIAL",
  "EQUIPIER NATIONAL",
  "EQUIPIER TERRITORIAL",
  "MEMBRE D HONNEUR",
  "OUVREUR DE GROUPE",
  "REFERENT TECHNIQUE MARIN",
  "RESPONSABLE BOUTIQUE SGDF",
  "RESPONSABLE DE GROUPE",
  "RESPONSABLE DE POLE",
  "RESPONSABLE FARFADET",
  "RESPONSABLE NATIONAL",
  "RESPONSABLE SCOUTISME EN QUARTIER",
  "RESPONSABLE VENT DU LARGE",
  "SALARIE",
  "SECRETAIRE DE GROUPE",
  "SECRETAIRE TERRITORIAL",
  "TRESORIER DE BASE",
  "TRESORIER DE BOUTIQUE",
  "TRESORIER DE GROUPE",
  "TRESORIER TERRITORIAL"
]
